[
  {
    "question": "Cryptocurrency is a:",
    "choices": [
      "Plastic money",
      "Digital medium of exchange",
      "Digital payment",
      "A & B"
    ],
    "answer": 1
  },
  {
    "question": "Mortgage is a:",
    "choices": [
      "Security on movable property for a loan",
      "Security on immovable property for a loan",
      "Concession on immovable property",
      "Facility on immovable property"
    ],
    "answer": 1
  },
  {
    "question": "A fixed deposit receipt is kept with the bank for its safety, is known as:",
    "choices": ["Safe Custody", "Safe Deposit", "Locker", "Valid Safe Deposit"],
    "answer": 0
  },
  {
    "question": "What is corporate banking?",
    "choices": [
      "Deals with consumer’s transaction rather than corporate or other banks",
      "Deals with cash management, underwriting, financing and issuing of stocks and bonds",
      "Manages portfolios of financial assets, commodity and currency, fixed income, corporate finance, corporate advisory services for mergers and acquisitions, debt and equity writing etc.",
      "None of the above"
    ],
    "answer": 0
  },
  {
    "question": "Liability-side of the balance-sheet comprises:",
    "choices": [
      "Capital and reserve",
      "Long-term liabilities",
      "Current liabilities",
      "All of the above"
    ],
    "answer": 3
  }
]
